%YAML 1.1
%TAG !u! tag:unity3d.com,2011:
--- !u!1045 &1
EditorBuildSettings:
  m_ObjectHideFlags: 0
  serializedVersion: 2
  m_Scenes:
  - enabled: 0
    path: Assets/Scenes/IdentScreen.unity
    guid: b418e4eb322e1bd448225f32b89653a0
  - enabled: 1
    path: Assets/Scenes/Title.unity
    guid: a58bfd7fd70145347adee3320d1fd40a
  - enabled: 1
    path: Assets/Scenes/Game.unity
    guid: f57d49a1f273edc41933dcc47e062d99
  m_configObjects: {}
